# Blender v2.78 (sub 0) OBJ File: '01_facade_new.blend'
# www.blender.org
mtllib 01_facade_new_02.mtl
o facade_tiang_01_Cube.000
v 0.540933 2.099269 0.100000
v 0.540933 -0.297731 0.100000
v 0.540933 2.099269 0.076806
v 0.540933 -0.297731 0.076806
v 0.504797 2.099269 0.100000
v 0.504797 -0.297731 0.100000
v 0.504797 2.099269 0.076806
v 0.504797 -0.297731 0.076806
v 0.504797 1.407793 0.100000
v 0.504797 1.925887 0.100000
v 0.504797 1.407793 0.005182
v 0.504797 1.925887 0.005182
v 0.496719 1.407793 0.100000
v 0.496719 1.925887 0.100000
v 0.496719 1.407793 0.005182
v 0.496719 1.925887 0.005182
v 0.597868 1.407793 0.000000
v 0.597868 1.925887 0.000000
v 0.447868 1.407793 0.000000
v 0.447868 1.925887 0.000000
v 0.597868 1.407793 0.005185
v 0.597868 1.925887 0.005185
v 0.447868 1.407793 0.005185
v 0.447868 1.925887 0.005185
v 0.540934 1.407793 0.100000
v 0.540934 1.925887 0.100000
v 0.540934 1.407793 0.005182
v 0.540934 1.925887 0.005182
v 0.549011 1.407793 0.100000
v 0.549011 1.925887 0.100000
v 0.549011 1.407793 0.005182
v 0.549011 1.925887 0.005182
v 0.504797 0.393746 0.100000
v 0.504797 -0.124348 0.100000
v 0.504797 0.393746 0.005182
v 0.504797 -0.124348 0.005182
v 0.496719 0.393746 0.100000
v 0.496719 -0.124348 0.100000
v 0.496719 0.393746 0.005182
v 0.496719 -0.124348 0.005182
v 0.597868 0.393746 0.000000
v 0.597868 -0.124348 0.000000
v 0.447868 0.393746 0.000000
v 0.447868 -0.124348 0.000000
v 0.597868 0.393746 0.005185
v 0.597868 -0.124348 0.005185
v 0.447868 0.393746 0.005185
v 0.447868 -0.124348 0.005185
v 0.540934 0.393746 0.100000
v 0.540934 -0.124348 0.100000
v 0.540934 0.393746 0.005182
v 0.540934 -0.124348 0.005182
v 0.549011 0.393746 0.100000
v 0.549011 -0.124348 0.100000
v 0.549011 0.393746 0.005182
v 0.549011 -0.124348 0.005182
vn 1.0000 0.0000 0.0000
vn 0.0000 0.0000 -1.0000
vn -1.0000 0.0000 0.0000
vn 0.0000 0.0000 1.0000
vn 0.0000 1.0000 0.0000
vn 0.0000 -1.0000 0.0000
usemtl facade
s off
f 1//1 2//1 4//1 3//1
f 3//2 4//2 8//2 7//2
f 7//3 8//3 6//3 5//3
f 5//4 6//4 2//4 1//4
f 3//5 7//5 5//5 1//5
f 8//6 4//6 2//6 6//6
f 9//1 11//1 12//1 10//1
f 11//2 15//2 16//2 12//2
f 15//3 13//3 14//3 16//3
f 13//4 9//4 10//4 14//4
f 11//6 9//6 13//6 15//6
f 16//5 14//5 10//5 12//5
f 17//2 19//2 20//2 18//2
f 19//3 23//3 24//3 20//3
f 23//4 21//4 22//4 24//4
f 21//1 17//1 18//1 22//1
f 19//6 17//6 21//6 23//6
f 24//5 22//5 18//5 20//5
f 25//3 26//3 28//3 27//3
f 27//2 28//2 32//2 31//2
f 31//1 32//1 30//1 29//1
f 29//4 30//4 26//4 25//4
f 27//6 31//6 29//6 25//6
f 32//5 28//5 26//5 30//5
f 33//1 34//1 36//1 35//1
f 35//2 36//2 40//2 39//2
f 39//3 40//3 38//3 37//3
f 37//4 38//4 34//4 33//4
f 35//5 39//5 37//5 33//5
f 40//6 36//6 34//6 38//6
f 41//2 42//2 44//2 43//2
f 43//3 44//3 48//3 47//3
f 47//4 48//4 46//4 45//4
f 45//1 46//1 42//1 41//1
f 43//5 47//5 45//5 41//5
f 48//6 44//6 42//6 46//6
f 49//3 51//3 52//3 50//3
f 51//2 55//2 56//2 52//2
f 55//1 53//1 54//1 56//1
f 53//4 49//4 50//4 54//4
f 51//5 49//5 53//5 55//5
f 56//6 54//6 50//6 52//6
o facade_tiang_02_Cube.021
v -0.506067 2.099273 0.100000
v -0.506067 -0.297727 0.100000
v -0.506067 2.099273 0.076806
v -0.506067 -0.297727 0.076806
v -0.542203 2.099273 0.100000
v -0.542203 -0.297727 0.100000
v -0.542203 2.099273 0.076806
v -0.542203 -0.297727 0.076806
v -0.542203 1.407797 0.100000
v -0.542203 1.925892 0.100000
v -0.542203 1.407797 0.005182
v -0.542203 1.925892 0.005182
v -0.550281 1.407797 0.100000
v -0.550281 1.925892 0.100000
v -0.550281 1.407797 0.005182
v -0.550281 1.925892 0.005182
v -0.449132 1.407797 0.000000
v -0.449132 1.925892 0.000000
v -0.599132 1.407797 0.000000
v -0.599132 1.925892 0.000000
v -0.449132 1.407797 0.005185
v -0.449132 1.925892 0.005185
v -0.599132 1.407797 0.005185
v -0.599132 1.925892 0.005185
v -0.506066 1.407797 0.100000
v -0.506066 1.925892 0.100000
v -0.506066 1.407797 0.005182
v -0.506066 1.925892 0.005182
v -0.497989 1.407797 0.100000
v -0.497989 1.925892 0.100000
v -0.497989 1.407797 0.005182
v -0.497989 1.925892 0.005182
v -0.542203 0.393750 0.100000
v -0.542203 -0.124344 0.100000
v -0.542203 0.393750 0.005182
v -0.542203 -0.124344 0.005182
v -0.550281 0.393750 0.100000
v -0.550281 -0.124344 0.100000
v -0.550281 0.393750 0.005182
v -0.550281 -0.124344 0.005182
v -0.449132 0.393750 0.000000
v -0.449132 -0.124344 0.000000
v -0.599132 0.393750 0.000000
v -0.599132 -0.124344 0.000000
v -0.449132 0.393750 0.005185
v -0.449132 -0.124344 0.005185
v -0.599132 0.393750 0.005185
v -0.599132 -0.124344 0.005185
v -0.506066 0.393750 0.100000
v -0.506066 -0.124344 0.100000
v -0.506066 0.393750 0.005182
v -0.506066 -0.124344 0.005182
v -0.497989 0.393750 0.100000
v -0.497989 -0.124344 0.100000
v -0.497989 0.393750 0.005182
v -0.497989 -0.124344 0.005182
vn 1.0000 0.0000 0.0000
vn 0.0000 0.0000 -1.0000
vn -1.0000 0.0000 0.0000
vn 0.0000 0.0000 1.0000
vn 0.0000 1.0000 0.0000
vn 0.0000 -1.0000 0.0000
usemtl facade
s off
f 57//7 58//7 60//7 59//7
f 59//8 60//8 64//8 63//8
f 63//9 64//9 62//9 61//9
f 61//10 62//10 58//10 57//10
f 59//11 63//11 61//11 57//11
f 64//12 60//12 58//12 62//12
f 65//7 67//7 68//7 66//7
f 67//8 71//8 72//8 68//8
f 71//9 69//9 70//9 72//9
f 69//10 65//10 66//10 70//10
f 67//12 65//12 69//12 71//12
f 72//11 70//11 66//11 68//11
f 73//8 75//8 76//8 74//8
f 75//9 79//9 80//9 76//9
f 79//10 77//10 78//10 80//10
f 77//7 73//7 74//7 78//7
f 75//12 73//12 77//12 79//12
f 80//11 78//11 74//11 76//11
f 81//9 82//9 84//9 83//9
f 83//8 84//8 88//8 87//8
f 87//7 88//7 86//7 85//7
f 85//10 86//10 82//10 81//10
f 83//12 87//12 85//12 81//12
f 88//11 84//11 82//11 86//11
f 89//7 90//7 92//7 91//7
f 91//8 92//8 96//8 95//8
f 95//9 96//9 94//9 93//9
f 93//10 94//10 90//10 89//10
f 91//11 95//11 93//11 89//11
f 96//12 92//12 90//12 94//12
f 97//8 98//8 100//8 99//8
f 99//9 100//9 104//9 103//9
f 103//10 104//10 102//10 101//10
f 101//7 102//7 98//7 97//7
f 99//11 103//11 101//11 97//11
f 104//12 100//12 98//12 102//12
f 105//9 107//9 108//9 106//9
f 107//8 111//8 112//8 108//8
f 111//7 109//7 110//7 112//7
f 109//10 105//10 106//10 110//10
f 107//11 105//11 109//11 111//11
f 112//12 110//12 106//12 108//12
